Fitting Exercise – Mohammed Zuber’s Data Analysis Portfolio
…
# ---------------- Merge the two datasets ----------------
# Now, we join the dataset of TIME = 0 records (dosing information)
# with the dataset containing the total sum of DV (Y_data).
# This ensures each individual has their dosing entry along with the computed Y variable.

final_data <- left_join(time_zero_data, Y_data, by = "ID")

# Print the final dataset to verify the results
print(final_data)

# A tibble: 120 × 18
   ID      CMT  EVID  EVI2   MDV    DV  LNDV   AMT  TIME DOSE    OCC  RATE   AGE
   <fct> <dbl> <dbl> <dbl> <dbl> <dbl> <dbl> <dbl> <dbl> <fct> <dbl> <dbl> <dbl>
 1 793       1     1     1     1     0     0    25     0 25        1    75    42
 2 794       1     1     1     1     0     0    25     0 25        1   150    24
 3 795       1     1     1     1     0     0    25     0 25        1   150    31
 4 796       1     1     1     1     0     0    25     0 25        1   150    46
 5 797       1     1     1     1     0     0    25     0 25        1   150    41
 6 798       1     1     1     1     0     0    25     0 25        1   150    27
 7 799       1     1     1     1     0     0    25     0 25        1   150    23
 8 800       1     1     1     1     0     0    25     0 25        1   150    20
 9 801       1     1     1     1     0     0    25     0 25        1   150    23
10 802       1     1     1     1     0     0    25     0 25        1   150    28
# ℹ 110 more rows
# ℹ 5 more variables: SEX <dbl>, RACE <dbl>, WT <dbl>, HT <dbl>, Y <dbl>
…
